*** Life<FredkinCell> 10x10 ***

Generation = 0, Population = 25.
0---------
0-------00
-0--0-----
0-0-0----0
------0---
--0--00-0-
0-----0---
-000----00
----------
--0----00-

Generation = 2, Population = 41.
-10-0-----
----1-01--
1-01------
0-0-21-0--
10----2-1-
-1--1-20--
0-0-0-2-0-
02-21----2
0-----0---
01-10012--

Generation = 4, Population = 38.
-32---1---
2-----2321
30---11-0-
-1-14310-0
1-0-------
-3--3-421-
-0--------
-4----00-2
------2---
03--00--2-

Generation = 6, Population = 45.
--41-1----
4110----43
-01-1--02-
1-2---3-10
1-0-013-2-
--0-----31
2-10--3---
2--31-0-1-
-0--1---1-
----222-21

Generation = 8, Population = 46.
2-------1-
63-021-34-
--3--22-41
3323--5232
30--2-3---
0-00--53--
4-----5-0-
450---2-3-
0-----3---
1-0-22--2-

Generation = 10, Population = 44.
-----2---1
--22--4-6-
31-31----1
---544-2--
--11213-31
-522---53-
401---5-2-
--2-11-1--
--0-2-5---
-4-2-434--

*** Life<FredkinCell> 10x10 ***

Generation = 0, Population = 27.
--0-------
0-0--00---
-0------0-
-0--------
--0-0----0
---00----0
---0----0-
0----0--0-
---00-000-
0--0---0--

Generation = 2, Population = 59.
112-0---0-
-121---11-
---00-1--1
1-0-100--1
00012-00-2
0-0---0002
-012-1-120
--000-0--1
-0102----1
0112-0-200

Generation = 4, Population = 47.
332-0-0-21
-141-1----
-21001----
32------1-
--0121----
2-01--002-
-2--1--1--
0-20---001
0---2-2-0-
2-3--0-40-

Generation = 6, Population = 45.
5----100--
----03-22-
--320--012
-220-0-11-
10--2-1---
---1--224-
1-------42
-14210-0--
01-----10-
--3-0-16--

Generation = 8, Population = 44.
------00--
-2------20
0-3--2----
42-0-0-1-1
--0---310-
-1----2--3
1-2-2---44
21-2--0223
--21-12-2-
4232----00

Generation = 10, Population = 49.
5-2-0-2233
02---42---
---31--22-
443---2-2-
3---2-3---
---11142-5
---322---6
-3--1--2--
-2232323-2
-2-211---2

*** Life<FredkinCell> 10x10 ***

Generation = 0, Population = 26.
-----00-00
-00-------
-------0--
---------0
---0------
00000---00
-0--------
0---------
-000----0-
0----00--0

Generation = 2, Population = 47.
---012-0--
1--10----1
---0--1-1-
0--10--11-
-----0-0--
22-221-1--
-201----1-
01-1000-1-
1--2111---
0-11122-0-

Generation = 4, Population = 51.
-01034--22
-2-3001-01
-0-0-11-3-
0----0-1--
-101-200-0
4----1---1
-4---0-0--
0-1-220---
1-0-1131--
--33-4-00-

Generation = 6, Population = 50.
10---41---
222-2--021
-2---3----
-11-200311
13-3--00--
4--33-02-3
14-200-0--
2-3---0--0
-1-4--5-00
-1------21

Generation = 8, Population = 46.
--1-4-303-
-244--1-23
---1-5----
03-2-22---
-31----201
-----20---
-6----0-3-
41333-2--2
2-----7-02
2345---121

Generation = 10, Population = 50.
1--24-30-2
-------225
---10720-1
2--43--4-3
13--0--40-
--14-4-314
28032--13-
4-3-------
230-2--2-4
-347----4-

*** Life<FredkinCell> 10x10 ***

Generation = 0, Population = 27.
-0-0------
---0-0-000
---0-----0
----0-----
0------0--
----0--00-
--0------0
--0-00----
0-0------0
0-----0-00

Generation = 2, Population = 32.
---2-1---1
-1-00-0---
0--2-1---2
--00010--1
0--0-0---0
---------0
0-2-0-----
--00-----0
----1--0--
-----1-0--

Generation = 4, Population = 41.
01-4-1---1
-1------00
-002-3---4
0-2-01--1-
01--1-----
----1100-2
0--1-100-0
11--2-----
1---101--2
--0-------

Generation = 6, Population = 49.
-1---1---3
0-01100222
00-4------
-0-1-12-1-
-302---2--
-1-01-2---
2-41012-02
3-1142-1-0
----10-21-
-10-------

Generation = 8, Population = 39.
1--5-3----
-----20---
00-----1-6
1-4-0-4--2
1-04-21-0-
0--2-3-0-4
--4-0----2
-21-------
3---1-223-
-3---2-2-0

Generation = 10, Population = 44.
1-1------4
1-13--2223
0--4-5110-
1--2----1-
1--4221-0-
--142-4--6
4--2-22--4
-4--4-----
3-2--1--5-
--2----4-0

*** Life<FredkinCell> 10x10 ***

Generation = 0, Population = 26.
0---0-0---
--0-------
00--00-0-0
----------
--00---0--
---00-----
------0---
---00-----
----0-0--0
00--00-0--

Generation = 2, Population = 46.
01--00-100
0---0-----
--0122-0--
--111-----
-----010--
-000211---
--00--0100
0-12--00--
--0-0--010
-2-1--1--1

Generation = 4, Population = 49.
-311-2--02
2-100-0---
--03---01-
---31-----
---0--32--
-22-23--1-
102-00-3-2
-0--01--1-
1--0011-10
2-1102--0-

Generation = 6, Population = 50.
0---1-03--
-1-0210-0-
2-0-33-23-
0-15----1-
0--2-0----
022223-11-
3-----1302
1222---1--
--10---03-
4-3-22-1--

Generation = 8, Population = 41.
0-2-3----3
31-223-0--
------1--1
00--20-0--
00-21-54-0
----2---10
----2-3---
--4-2---31
-0--0--25-
-2----13-2

Generation = 10, Population = 52.
2-2----5-3
----451--0
-1153-1-51
-0-5--0-3-
00-4--7412
23---4--3-
3-322----3
124---1-33
--21222--2
-452-43---

*** Life<FredkinCell> 10x10 ***

Generation = 0, Population = 28.
--0---0---
----------
------0---
----0-00--
0-----0---
----000--0
00------00
0-0---0000
0----0-00-
-0-------0

Generation = 2, Population = 45.
0-0-----0-
----0-00--
0-0-1---0-
--0-----1-
-10-0-0--1
0--1--0---
0-00-1--02
-10-0--20-
-010-0100-
0010--0-00

Generation = 4, Population = 49.
--0---1---
----202--0
00----2-21
---1--22--
0-0-00210-
2-1--0-11-
-20---000-
01-001--2-
-210-232--
223-10--0-

Generation = 6, Population = 45.
-10------1
--1-4--202
--21-02--1
010---42--
2-21-2--0-
4113----32
-2--122--4
2---01----
2-3---3--0
--313--0--

Generation = 8, Population = 48.
13--1021-3
-0--403---
----------
012-01-421
-----231--
---3-----2
--0014----
-2-10-2-30
-35-03332-
-4-15110-2

Generation = 10, Population = 50.
-3-----303
02---23--4
21--2----3
-1-1--5--3
--4----111
4225--2--2
1--0-6312-
--11--4-32
4--02--521
-64-7330--

*** Life<FredkinCell> 10x10 ***

Generation = 0, Population = 26.
----00----
------00--
---------0
-0---0--0-
---0-0----
-0--000-00
--00---0--
0---------
--00-0---0
00--------

Generation = 2, Population = 51.
--012201-0
-0--1----1
---00--1-0
-0--121-00
-01--0---1
100-22---2
102-0-----
--0-010-01
002-00-0-0
2201------

Generation = 4, Population = 49.
00-1-2--0-
-00110-11-
--122-----
1---14--22
-2111--0--
-02-2-2--4
1--1--10--
0-0-23--2-
024--01---
2-2---0-01

Generation = 6, Population = 50.
----4-122-
-02--0-31-
-0----020-
1----6304-
-2-1---0-1
1--0--412-
-141-01201
01-1---02-
2-62--1-0-
--4-00-02-

Generation = 8, Population = 40.
-12--4--22
----2---32
-2---1----
-2--3--043
-22--1-0-1
1-2042--25
--4----2-3
-1--44---1
---2---0-2
-4-----2-3

Generation = 10, Population = 44.
2-4-4-3-2-
-04-2---3-
--------1-
2------0--
022-3--2-1
-1-04--247
31620--2--
11-1662041
-27------2
---31-----

*** Life<FredkinCell> 10x10 ***

Generation = 0, Population = 27.
00---0----
-----0--0-
------000-
0------0-0
---00----0
-------0-0
-00-0---0-
0-0---00--
---0----0-
--0-------

Generation = 2, Population = 42.
-21--21-1-
1--0--0--1
10-0--2-0-
0-0-----12
----21---0
--1--010-2
0-00----00
-----1-21-
--1-101-0-
----0-00--

Generation = 4, Population = 41.
--30-4101-
-1--11-1--
3--2-1---1
2--0111--2
-0-2------
--30---212
-1--10-10-
--110-24--
-------0-1
--1------0

Generation = 6, Population = 46.
-352------
2-023--3--
5--4--3223
4-1---3---
0---32-110
-15-012--4
-112-2----
0031--46-1
-0--2---1-
0--1--0---

Generation = 8, Population = 56.
--72041220
420-5----2
---6-23--5
4011-25213
-003--0310
0151--422-
----2----0
2---02-831
-2---2----
0---11-211

Generation = 10, Population = 44.
24-22--2--
620-73--1-
---8----25
-2331--4-5
22--42-31-
----0---26
---2-3--1-
204-0-5--1
----3--1-2
0--2-1----

*** Life<FredkinCell> 10x10 ***

Generation = 0, Population = 25.
--------0-
0-0-00--0-
0-------0-
---0------
--000----0
----0-00--
--0-------
---00-----
0------0--
0-0--0--0-

Generation = 2, Population = 45.
1-----0---
----2--1--
2--11-0-21
100---001-
-1--011110
--0--02-11
--00---1-0
10--2--10-
2----1---0
2----0100-

Generation = 4, Population = 38.
1-00-----0
10---2-101
----------
---10--2--
0----313--
0-201---13
------0-0-
--01-0-1--
2------0--
4100---020

Generation = 6, Population = 58.
31-211-1--
1-014203--
--03-110-3
---32014-0
2-212513-1
-04----1-5
----10--2-
2--3-----0
4-0--31-01
4-02102022

Generation = 8, Population = 48.
--2-3--3--
-2--62--1-
4-05--1-25
2-2--0--20
-32-4--5-1
---0--2---
--1-3---2-
--132-1222
--21031--3
-1021240--

Generation = 10, Population = 54.
--22-1-31-
2----4-431
--0--3114-
-22--0--22
--2--6-5-3
12-0--222-
01315202--
3---41--4-
40-1053--5
6-2--462--

*** Life<FredkinCell> 10x10 ***

Generation = 0, Population = 26.
------0---
0-0----0--
---0--00--
--0-00-00-
---0------
-0-0-----0
0---0-0-00
---0------
------0---
--00-----0

Generation = 2, Population = 47.
---00--00-
-------210
-0-00-2-00
-1--22----
01-201-111
-00-0---02
0--10-0020
--1--0----
0-----0--1
012-10-0--

Generation = 4, Population = 39.
--1---10--
-1--0-02--
1-020--20-
-1--4-0---
-------3--
10-1---1-4
0--3-12---
---000--10
--00--0---
01---21--1

Generation = 6, Population = 53.
---2211--0
-110-0--10
-12-2-3--1
0-0-----20
--0-1-0532
1-1--10314
20--114-4-
-01---11-2
-0-0--2-1-
-332--1--1

Generation = 8, Population = 42.
----2-3-02
-13-121-3-
1----13--1
02015----2
-------7-4
3233-1-5--
2014----61
-2--------
2--2------
23---4--01

Generation = 10, Population = 50.
0-2--3-0-4
-3-01--352
3-33--33-3
02---2--32
-203--193-
34-3---7--
203-335---
--2----233
---2-1--22
--4--43-2-

*** Life<FredkinCell> 10x10 ***

Generation = 0, Population = 25.
0------0-0
0-----0---
-0-------0
-0-000---0
-0-------0
--0-----0-
0----0---0
-----0----
---------0
00--0--0--

Generation = 2, Population = 50.
-10--0----
2000-1--00
02-1-----2
10---2--10
12-1-1-0-2
10-1--0--1
0110-----0
10001---0-
1----1-1--
-2-10-10-1

Generation = 4, Population = 40.
--0012-0-1
2-2-0-1-2-
-4---0----
3----4--32
34--------
32-----01-
--3-01-0--
32-2-1-0--
-1---1-3--
12-32----1

Generation = 6, Population = 51.
2-----10-1
2----2---0
240202---3
52-11--1-4
54-20--1--
320--1103-
--322-0--1
52223---1-
--1-0----1
32-54-2---

Generation = 8, Population = 38.
42-0--3-0-
-04-1--1--
---4-2----
7-13----46
---2-2---3
-----33---
---4-22-1-
-22----11-
2--0---4--
541740----

Generation = 10, Population = 49.
--102-----
----131-2-
4--6--1114
---------6
-5-4-40-05
33--1---52
12-42-2-32
-44--2---1
4232-31-01
54-9--3-0-

*** Life<FredkinCell> 10x10 ***

Generation = 0, Population = 24.
------00--
0--00-0-00
---0------
0--------0
-0-----00-
---0-0--0-
0-0--0----
-----0--0-
--0-------
---0------

Generation = 2, Population = 46.
---1110201
-1--20-12-
-----01-1-
--0-0001--
0-1---1--0
11-0--1021
-0-01---0-
---0-2110-
--0-01----
-0-0----0-

Generation = 4, Population = 49.
-11----423
----2-1--1
0-1--21---
--2-2--30-
-130101202
11----10--
02023-0--0
01-20---0-
000---010-
---0---1--

Generation = 6, Population = 48.
-3-33---23
------3--3
--3-14103-
-02--2-3--
1-5030--24
-3--01-031
22--3-200-
-----31---
02--22--0-
1---1--300

Generation = 8, Population = 47.
------1---
-21-21--45
-0-1---250
02----1-11
1-505----4
-5---130--
421-50--0-
12-213-11-
-4--2-1-2-
----3-1-22

Generation = 10, Population = 52.
-4-45-16-4
-23-4-4-4-
005-2--4-2
0--0------
3170--2---
---2--3-3-
42345-2221
1---13--3-
06-0-3----
2101503-2-

*** Life<FredkinCell> 10x10 ***

Generation = 0, Population = 25.
-------0--
00---00-0-
-------0-0
----0-----
--00------
-0---0----
0----0--0-
00-0-0----
-0-000----
-----0----

Generation = 2, Population = 43.
-----1----
2-1---200-
--00-1----
0-1-----0-
-0--0--000
00-112-0--
21-11011--
0-0--0-0--
020---100-
01-----0--

Generation = 4, Population = 44.
--1----1--
2----24--1
0--2----00
-1-0-1--2-
12-1201---
02---21-01
-11----31-
--2----0-0
240-0--021
01-0-----0

Generation = 6, Population = 52.
--1102-11-
423-14---3
---41----0
-----3014-
--11201-12
04-21211--
3-1-2--31-
1--21-100-
-60102--2-
-----1---2

Generation = 8, Population = 45.
10-122--3-
----34-115
-11--2----
--3-13--4-
-3---0-0--
-6-2-43113
-2--202---
---2--322-
-8---2--4-
0---03110-

Generation = 10, Population = 43.
-21342-25-
---03---3-
---6----0-
035---21--
--2-3032-4
-602-6-31-
--2-4-4---
2--2--3-2-
-8--14-1--
-------103

*** Life<FredkinCell> 10x10 ***

Generation = 0, Population = 25.
--0-0----0
--0--0----
0--00-----
------00--
0---------
-----0---0
---0----0-
0000---00-
0---------
0-0-0-----

Generation = 2, Population = 44.
---00-00--
1--01-1---
-10-201--0
--0-11--1-
--0-0---0-
100---1-00
-1---10---
00-0-01---
0-01----1-
-0-0--000-

Generation = 4, Population = 46.
---000021-
101---1---
0--2---1-0
00-----230
1--------0
32--1--0-2
1--2---12-
-0-200--10
--2-1-----
10-21120-1

Generation = 6, Population = 49.
1112-022--
1031---1-1
-302411-12
2--121---2
1-0----00-
----1-3---
-2--1-2---
-012--2--2
--221-113-
-2--3--2--

Generation = 8, Population = 45.
133-0-----
103--0-3-3
1-22--3--4
--1-41-3--
---01-0-2-
54---0--1-
3-0-----2-
1--2-22-12
1-2-1-1-50
----52-4--

Generation = 10, Population = 46.
-5-------1
-------3--
3--4-333-6
4--1431-3-
-102100--1
---12---14
3--32-3--0
--32-421-2
3-2----3-0
3-1-54--0-

*** Life<FredkinCell> 10x10 ***

Generation = 0, Population = 28.
------0-0-
--0---0-0-
----0----0
----00-0--
-00------0
--------00
0--0--0-0-
-0-0--0---
--------00
0--0-0--0-

Generation = 2, Population = 39.
---------1
0---11202-
-0-----10-
---1-2-0--
------010-
-1-100---0
0---112---
00--1---01
1--0---102
--10---12-

Generation = 4, Population = 44.
-0------1-
0---3---20
---1-0-30-
0-----1-1-
02-----3-1
0-032-110-
----3--120
221130--0-
-00-00-1--
--30--11--

Generation = 6, Population = 50.
-0---011--
------2142
00-1--1-2-
2--20--030
2-1-1--5-1
--23203-01
1---3--1-2
44---0-12-
2-2--01-0-
----0031-0

Generation = 8, Population = 50.
1--01----2
1--1-14--4
---3----21
200203----
-3-0-0--11
1-2-2---2-
3---5---24
6--1-22-21
4-220-1-22
1042-2---0

Generation = 10, Population = 53.
-1--313134
--------54
0---1-3541
-202---040
45-2122--3
-22---4-23
-11-7243-4
6-2---2---
41--21-2--
----224-22

*** Life<FredkinCell> 10x10 ***

Generation = 0, Population = 27.
0--0---0--
00-----0-0
-0------00
-0--0-00--
-00-------
-------0-0
0----00--0
--00------
---0------
-0--0-----

Generation = 2, Population = 53.
--10---21-
0011001---
001---1--0
1001002-01
-0-1101-0-
-110010---
01--1---12
1----1-0-1
01----0--0
-0--0-0---

Generation = 4, Population = 47.
---00--43-
0-130--1-2
-0-1011-12
10---2--01
-0---030--
0--203----
----32-03-
1---------
-111---0--
0211-0-101

Generation = 6, Population = 54.
--1--114--
0---201304
--31--3--4
3----241--
-2-3123-1-
0--4--0011
------12-3
10--1--011
11-1-1-202
---1001103

Generation = 8, Population = 47.
2-------4-
---34-150-
1-5313---6
3-2----302
-2-314--3-
0-2--4-2-1
0----31-43
---01--2--
112----4-4
2-3-021-2-

Generation = 10, Population = 50.
2--1113-61
01--4--5--
3-----3--8
5--3---522
-2-514525-
2----4--23
-----333--
-11-3--42-
1-220-1614
4-5--23---

*** Life<FredkinCell> 10x10 ***

Generation = 0, Population = 21.
------0---
--00----0-
-------0--
---00-----
--0-------
-00--0----
-0--0---0-
---00-0---
-00-0-----
-----0----

Generation = 2, Population = 43.
----0-011-
01-2-01---
--1--01--0
--02--0-0-
00-----00-
1---0-10--
-2002-----
----200-1-
1221--1-0-
----0010--

Generation = 4, Population = 52.
-------1--
23-21030--
-0-11-3-00
1--42-212-
021-1-----
3-10--3-00
04--40-1--
1-0220-03-
----211-2-
--10203--0

Generation = 6, Population = 52.
-1-111033-
-3-2-----1
1--3-1--02
3-0--0-1--
2---31-101
-0-----122
-61----311
31-2-2-031
3223-1--4-
-130-2-2--

Generation = 8, Population = 49.
1-0---0-5-
3512-----3
--2--3----
--0-30--30
-22----3--
-21--14324
183--11--3
33-4-40-31
----312-60
-15-3--20-

Generation = 10, Population = 48.
3-2--2----
-5-4---00-
-1-42-4-2-
--0-503252
-2-1510---
-43221--2-
-8--5334--
332-----3-
42-4332-8-
------34--

*** Life<FredkinCell> 10x10 ***

Generation = 0, Population = 29.
00-00000-0
--0-------
---0---0-0
00--------
-00-------
---0------
-0---0-00-
0----0--0-
---0--0-0-
------0-0-

Generation = 2, Population = 38.
-----0--0-
-0--1-----
1100101--0
2---------
00--00--00
--------1-
-011-2-201
0-0----00-
----1-20--
0---01--2-

Generation = 4, Population = 49.
120-0--201
0-00--1---
1---303-1-
211-0---1-
----2-1102
--1---001-
----02-203
0-2---0--0
-0-13-40--
0-0103----

Generation = 6, Population = 52.
-2020-0--3
0---30----
-2003-303-
2---0--01-
1-1-411-04
01--00----
-12--4--23
0-20012--2
-001-142--
-1-----1-0

Generation = 8, Population = 49.
1402-10---
---25-3-1-
--0--1---1
41---0---0
----63330-
0-21-2--20
-1-2--034-
00-20-210-
0-2--1-2--
131-1-1---

Generation = 10, Population = 46.
3-02-30413
1-1-7---10
-30----133
----000---
-2--8-3---
-24----14-
1332-----3
0----22---
-04-415-00
--1---12--

*** Life<FredkinCell> 10x10 ***

Generation = 0, Population = 27.
-0--------
---0-0---0
--00------
--0--0----
0-0--0-0--
-----0----
0000---0-0
----000---
00----0-0-
------0---

Generation = 2, Population = 43.
-01-------
-102-----0
--0-1--0--
1---1--1-0
002110----
--011-10--
---2000-0-
--1020-01-
-2--1-0001
-----1--1-

Generation = 4, Population = 42.
10-0---0--
-1-4-0----
--21--1--0
30--11---0
-0431---0-
-0-1-11---
10--0-0--1
00---00-30
--0---22--
--0-0-1---

Generation = 6, Population = 39.
---2--10--
0---0--1-1
-14-21---2
5--------2
-----2----
-0---312--
12-------3
00-1-22-50
-2--304-0-
-1--013--0

Generation = 8, Population = 63.
--22-1301-
-----003-3
1-6123-2-2
-01-2202--
1-4424-1--
-2-23-14-1
14140-0115
022--2205-
122-3--323
1-21--3--0

Generation = 10, Population = 54.
-1-40--2--
-204--251-
13-1----0-
62304-0414
---624-111
1404--16--
-----2-1-5
22--344-71
344--06-43
--23------

*** Life<FredkinCell> 10x10 ***

Generation = 0, Population = 26.
-0----0--0
------0-00
-0--------
-0-0---0--
0--0-0-0--
---------0
-000------
------0--0
-0----0---
---0-000--

Generation = 2, Population = 45.
---00-210-
-0-00-2-20
12---011-1
-2-2--1-10
00-----2-1
-1-0--0---
----1-10--
---1012-1-
-01-0---0-
-1--02--1-

Generation = 4, Population = 47.
0-10-0----
--0-0120--
-410-21--1
-2-2-031--
-2110--2-3
---0----01
0----132--
-10---21--
1-31--11--
-301--22--

Generation = 6, Population = 56.
0-121222-1
110-----31
----1--31-
-202-05---
----2-0--5
-302--21-1
-112-3520-
1302-143--
105--13310
05------30

Generation = 8, Population = 43.
211--2---3
-1--12-2-1
3--0---5-1
-4-4-25---
-2-2-1-317
-3-2----2-
--1-235--0
13-2--4--1
-0-1---5--
0----4--3-

Generation = 10, Population = 50.
-3-314-4-5
-300------
-5-2----1-
-6-4-----1
221223-5--
15-4--4--3
1-13-35---
--1-0--433
-253124---
051--4-231

*** Life<FredkinCell> 10x10 ***

Generation = 0, Population = 27.
-0---0----
--0--0---0
-00------0
-------0--
00--0-----
--0-0---0-
-00---0---
-00-0---0-
0-----00--
0--------0

Generation = 2, Population = 43.
--0--2-0-1
0--11--0-2
---1-1-1-2
----1---1-
2--1-----0
11-----10-
10-10-010-
---0----01
20--112-01
-1--0--11-

Generation = 4, Population = 52.
1-0-02----
01--3-100-
111--1-3--
-0011---11
--1-1-011-
3-2-200---
1----02--0
00--1100-1
-0-0--42-1
-31-20-3--

Generation = 6, Population = 46.
-1-0--0---
212--1----
1-1-1-1-14
0--11---13
41---1011-
5-4--2----
10--------
-0--33-01-
30-0224413
----42-5--

Generation = 8, Population = 46.
2-1--3---2
2-21---123
1--3-2---4
0----0-0-3
63---1-1--
514-34---0
1-1-2----1
1---33---1
----2---3-
-420-21711

Generation = 10, Population = 44.
----1----4
222-513--5
1--5-4-4--
000-2--22-
8--11--3-0
------22-2
11---23-21
----5--013
5---4----5
--225--7--

*** Life<FredkinCell> 10x10 ***

Generation = 0, Population = 24.
-----0-0--
----0-----
----0-0-00
--00------
----0-0---
-------0-0
---0-0-0--
0--0---00-
------0---
00---0----

Generation = 2, Population = 45.
---00-0-1-
---1--1---
--1--00-22
01---0-0-1
--10-0-0-1
0-0--1--0-
-0-20--0-1
--1--100--
---100-01-
2210-0--0-

Generation = 4, Population = 51.
-0-0----11
0---1--101
1-1020-1--
---2--1-1-
0-1--0021-
01-10--2-1
-0-42-0211
00---1-211
--1-0-----
4-1012--2-

Generation = 6, Population = 48.
0-001-1-1-
2--3-0212-
3-3-42----
---4013---
21-2---4--
-----2---3
1004-12---
20----1231
0032---111
--1--4---1

Generation = 8, Population = 55.
-0-2--3---
211--0-122
-031----4-
131-23---1
4-1-0-1--3
01--14-31-
-2---1-2-2
4--101145-
0---22-1--
-230341123

Generation = 10, Population = 43.
-222303---
41----4--4
--3--30--3
--3---4---
--33-11---
0112-41-3-
--1---32-2
-12-2-147-
21-4--0---
--------25

*** Life<FredkinCell> 10x10 ***

Generation = 0, Population = 25.
-0--0--0--
--0-------
000--0--0-
--0-------
--00---0--
-0-----0--
--0-------
0-0---0-0-
000-----0-
------0---

Generation = 2, Population = 44.
1--10-1010
1-2-1-----
-0-1--11--
100-0--1--
----10--10
1--1-01-10
-0-10--11-
-10----02-
---10-0---
1-1-0-----

Generation = 4, Population = 47.
-------0-2
312---00--
22--113110
--2-----0-
--111-0-10
-013-03--0
-22--00-3-
2-2-----2-
--13-000--
10----100-

Generation = 6, Population = 57.
31--0-221-
---1-0---0
2-22-153--
---01102-1
-0--31--1-
-0---0--32
0---200--0
2--0000041
0-15-220-0
32-110-221

Generation = 8, Population = 43.
531------2
-3--3-11--
2244-37-31
--3-3-2---
---23----1
1-----4-32
-23----1--
-2-----24-
0137044-10
3-----2---

Generation = 10, Population = 53.
--3-104332
---2-2--00
4--6259-53
-15-5-43-1
1124----2-
11-------2
-2522-0-51
---1-10-4-
--3--4-212
-32-2-43--

*** Life<FredkinCell> 10x10 ***

Generation = 0, Population = 25.
----0---0-
-------0--
00-----00-
--0-----0-
--0-------
----0---0-
--00--0-00
------0---
----00-00-
--0-0----0

Generation = 2, Population = 44.
000-0--0--
--0--0--10
2--0001-01
1-----002-
-1211-00-0
------1-2-
012-0-2--2
--1-1----1
-----2122-
0------1--

Generation = 4, Population = 46.
-00-0--00-
---01--110
-2--021-2-
3---0---2-
0----020--
1-0----1-1
-12-2041--
--3-3---03
1010-4-44-
----11-3--

Generation = 6, Population = 44.
2--12-10-0
001-3--11-
32---231--
--112---4-
0--122---1
3---10-1-1
13-1-0-1-3
-----1-1--
-----6---0
---0--0-0-

Generation = 8, Population = 46.
4--3-03010
--3--1--31
3-1-2-3-31
4---2---40
23---2----
3-1-1-132-
-5313-----
1---5-1-1-
20---8-5--
-0-03--4--

Generation = 10, Population = 50.
42---0303-
---1--1-5-
-2-1--3---
----402---
-521--2103
-----23-4-
27515142--
-1407-1---
20-218-7-0
0-0----610

*** Life<FredkinCell> 10x10 ***

Generation = 0, Population = 27.
0--0----00
---0--00--
--0---0-0-
----------
--0---0---
-0----0-00
0-00----0-
---------0
------0-00
---0---0-0

Generation = 2, Population = 44.
-1-2-0-0--
-0--1---11
--00-----1
-0-0---010
---1--2-1-
---10-200-
-1--101-21
-0-1--1-12
0-010-01-2
-0-0------

Generation = 4, Population = 35.
--0--0----
-20-----3-
0---0-1-11
---------0
--11------
-11-0-4021
1------1--
---3-0---4
----20-3-4
-0-2-01-02

Generation = 6, Population = 50.
--23-01021
0--22-1--1
0--100-011
----1-1---
00---04120
0-1----22-
1--22--3--
-11-1--0-6
0-12-213--
----10---2

Generation = 8, Population = 45.
-3431---2-
24---0-251
--2-------
---0---2-1
0-1-0-6--2
-3--11-4--
3-24--3-3-
---3--1-16
011-3---24
-0-2-021-2

Generation = 10, Population = 48.
0-4--1--4-
4-14-024-3
-0-10-1-21
10--2--223
0--3---3-4
--2--3--23
--4--0----
-3-5-2-03-
2-3-3-1326
----32-3--

*** Life<FredkinCell> 10x10 ***

Generation = 0, Population = 27.
-00-----0-
-0-0--0---
0---0-----
----0-----
0-0---0--0
------0---
0-0-----0-
-------00-
00-0---00-
------000-

Generation = 2, Population = 40.
-020--1-0-
-2-0-1--1-
-0------00
-011--1---
----1--1-0
-------1--
-0-10--021
-----01021
-2-0--0-21
----01--01

Generation = 4, Population = 42.
102--0--21
--12-1-1--
-00-1---0-
1------0--
--10111---
-101---10-
--0-2-0-4-
---0--32-3
-----12---
--002-12-1

Generation = 6, Population = 43.
3-2--22---
-3-41----1
-20---0-02
101-----00
1-12-1-31-
-3--1-----
0--22---6-
------54-3
--10--42--
01--4-140-

Generation = 8, Population = 40.
3120-4-1-3
0--6-2011-
0--------4
--3-1-20--
3------5--
13-2---30-
-0----2-6-
1---125---
-2-20----3
-3-0-2----

Generation = 10, Population = 52.
---006-3--
04-8----33
24-1-1-0--
123-----21
-02--12-1-
-3-2-013-1
12----4282
---0125---
--22-3-343
2--25225--

*** Life<FredkinCell> 10x10 ***

Generation = 0, Population = 27.
00--0-----
--0-----0-
0-00----0-
--------0-
0--0-000-0
------0---
------0--0
00--00-00-
---0---0--
----------

Generation = 2, Population = 44.
220-0-0-1-
0---1-0-2-
--02---1-1
--1-----2-
-1--0-2--0
10---0-00-
1---10200-
2----210-0
-1----1---
00--00-10-

Generation = 4, Population = 45.
22--2-20-1
2-1-3-----
-10-0--101
00---0-0--
0----2-1--
--------0-
1--1-0-00-
4-00-2--2-
1--0-132--
20--22132-

Generation = 6, Population = 53.
--1140-2--
40--3120--
1103--11-3
----02-021
-2--1--3--
-001--012-
310----2-1
4-22------
-20-13---0
2210-43-41

Generation = 8, Population = 35.
--31-0-4--
4-----4---
-----1-31-
1---0---2-
--0--3---1
-22-0221--
---32----1
614-1--1-0
-2--3-42--
--3-------

Generation = 10, Population = 33.
345-5--431
--3-------
-----12---
-13-04-1--
2----5-40-
24---42---
----4-----
-3-4------
--2--36-1-
-3-----5-1

*** Life<FredkinCell> 10x10 ***

Generation = 0, Population = 27.
---0--0---
00----00--
0---00----
----------
00-0-0----
---0--00--
-------0--
0-00------
0---000---
00-0------

Generation = 2, Population = 49.
11-0--2-0-
0-1110--10
-0-1-2-1--
01-1------
-20-0-----
11121---10
-0-0000--0
2-2-0111--
0--12-2-0-
0--0-1----

Generation = 4, Population = 50.
-3120--0--
2---10---2
22112-0101
2-13------
2-01---0-1
--3---2--0
1--002---2
-1212-13--
0--1--4-01
22--110---

Generation = 6, Population = 51.
-5120---2-
--2---0--4
4--32--101
23----1---
----200-0-
-2--3-2-30
1110-4-214
---1231-0-
-103--412-
--11310-1-

Generation = 8, Population = 48.
---221-1-0
-1----0126
6-25-423--
25-5------
-3-2-0-02-
244--0-1-0
---0-604--
----2--400
--2--161--
23-3-1-13-

Generation = 10, Population = 54.
17-42----2
31--32012-
--453--3--
-5-5--3-1-
432---10-2
4664-0-150
--1-2-06-4
---2-5-602
2-----6-43
--233311--

*** Life<FredkinCell> 10x10 ***

Generation = 0, Population = 27.
------000-
---0-----0
-0--------
-00-00--00
-0-------0
---0----0-
---000----
----000--0
0-------0-
-------0-0

Generation = 2, Population = 47.
-0--01-0-0
--1-1--10-
-2-1--0010
1-2-2---2-
-2--11-0-2
--1--1--0-
0-10-00011
--0-0-21--
0-00111---
----0-1---

Generation = 4, Population = 36.
--010---2-
-----0--01
-2-11-221-
-----1-1--
02----0---
---10---2-
0------233
0---2----1
000------0
----2-310-

Generation = 6, Population = 44.
0---2212--
---0-002-3
1-----4--1
----3--3--
-41---0-12
013-2--0-0
2----0-4-3
0--1-----1
0-211---0-
1-1-2051--

Generation = 8, Population = 42.
0--1--3-4-
-0-0---21-
-3---0----
22-13----0
1--1-2--32
0----10--0
-03-101--3
0-0---32--
00--1--0-1
--3-2---1-

Generation = 10, Population = 44.
--234-----
0---3-0---
-----064-3
--------3-
14-324----
22----023-
32313235-5
2---2-3---
02333--2-1
--3---521-

*** Life<FredkinCell> 10x10 ***

Generation = 0, Population = 26.
--0--0----
---0------
00--------
0-00----00
----0---0-
0-0----0-0
0-0--0---0
-0--------
--0--0-00-
0---------

Generation = 2, Population = 50.
-10010-0--
1100-1--00
0--000--1-
21-2000---
-0---1---1
20-111-012
---1-0-1-2
--10---1-1
--011-02--
-11-------

Generation = 4, Population = 55.
----1-0-01
1-22-----2
020-22---0
211--02-1-
1---1--11-
--1-1300-4
--1-1201-2
-112-1--03
0023-0222-
13--1--1-0

Generation = 6, Population = 46.
11--1000-1
3---1-1002
2---4--0--
4-1320--3-
-0---211-2
--3--5--26
10--1---1-
--1-1----3
-0--30--2-
--1-1-0-1-

Generation = 8, Population = 46.
13--1---23
--24---0--
----420--2
6333--3---
-0--24-3--
----271-2-
3--23-1233
1-1--1-1--
104-5--44-
1-1---0--1

Generation = 10, Population = 53.
-5-1-11045
--462-1--2
3-126201--
-5--4-50--
2-00--1-13
-13-491-4-
-21-32-4--
1--2---11-
3----1246-
--3--10-2-
